,Exp,W,b,Aciertos Train,Aciertos Test
0,1,"[ 0.2666033   0.10115276 -0.06206895 -0.98940092  0.48603953  0.67164582
  0.18132195 -0.93698904 -0.11608789 -0.05130486 -0.0567565   0.36800053
  0.59294077]",[-0.63359273],94,63
1,2,"[ 0.45647887 -0.20307668 -0.28445028 -0.42337931 -0.22039472  0.10711475
  0.55643385 -0.97899173  0.29156408  0.17708416  0.20685855  0.26368672
  0.79492799]",[-0.75196908],94,66
2,3,"[ 0.55771444 -0.78852707 -0.2018855  -0.95521563  0.0952299   0.21390049
  0.6421652  -0.3916324   0.44996976  0.0188937  -0.45334704  0.04069942
  0.71375929]",[-0.47269178],96,65
3,4,"[ 0.46917653 -0.55423368 -0.39852434 -0.75567647  0.21472938  0.39033608
  0.41094382 -0.48250796  0.0537735   0.19741011  0.09910914  0.32743301
  0.62648071]",[-0.71470289],95,64
4,5,"[ 0.74631954 -0.53004168  0.11681185 -0.93863801 -0.02153054  0.12313756
  0.59522396 -0.41068037 -0.35173758  0.21694697 -0.05801392  0.69844324
  0.47466901]",[-0.89043047],96,67
5,6,"[ 0.64269762 -0.85424417 -0.18580267 -0.52916409  0.04801072  0.24404194
  0.5738994  -0.46435515  0.30421899  0.1525842  -0.40506316  0.33456755
  0.6790631 ]",[-0.78823072],96,65
6,7,"[ 0.30493477 -0.01337663 -0.468469   -0.80594288  0.49279218  0.62555988
  0.6066939  -0.84297784  0.01175576  0.40068185 -0.22900848  0.17006613
  0.51056013]",[-0.6664332],93,64
7,8,"[ 0.09667347 -0.51815581 -0.13603726 -0.44325352 -0.32143211  0.79059208
  0.06400694 -1.05073108  0.39651296 -0.02306833 -0.21935533 -0.06691363
  1.15855041]",[-0.37666243],93,64
8,9,"[ 0.59562898 -0.78994783 -0.21554481 -1.05654377  0.25498832  0.00308162
  0.08850847 -0.51731686  0.4374415  -0.3076012  -0.11517031  0.09282829
  1.05143816]",[-0.28421496],96,65
9,10,"[-0.10676899 -0.45065665 -0.01550066 -0.9027244  -0.11182236  0.32850664
  0.63271794 -0.41486121  0.33866465  0.39883197  0.16084378  0.63616358
  0.60005469]",[-0.91392849],93,65
